
{
    "sslServer": true, 
    "redis-auth": "S!gn@lc$",
    "mysql": {
        "client": "mysql",
        "connection": {
            "host": "127.0.0.1",
            "port": "3306",
            "user": "root",
            "password": "root",
            "database": "gps_baseinfo",
            "charset": "utf8"
        },
        "migrations": {
            "tableName": "migrations"
        }
    },
    "mongodb": "mongodb://localhost:27017/gps_server",
    "jwt-secret": "super.super.secret.shhh",

    "mongoLogs": {
        "logsLength": 1000
    },

    "gator_m528": {
        "debug": true, 
        "port": 8090,
        "device_adapter": "M528",
        "vehicle_access": "admin:admin",
        "http_api": "https://bawq.com"
    },

    "queclink_gv300": {
        "debug": true, 
        "port": 8088,
        "device_adapter": "GV300",
        "vehicle_access": "admin:admin",
        "http_api": "https://bawq.com"
    },
    // M528 Protocol
    // Protcol has Packet head, Main order
    // and Packet length
    "M528": {
        "com:update"        : "2424300006",
        "com:engine"        : ["2424390006", "2424380006"],
        "com:speed"         : "24243F0007",
        "com:interval"      : "242434000b",
        "com:timezone"      : "24246C0008",
        "com:parking"       : "2424400007",
        "com:power"         : "2424410007",
        "com:reset"         : "24246B0006"
    },

    "GV300": {
        "com:update"        : "AT+GTRTO=",
        "com:speed"         : "AT+GTSPD=",
        "com:engine"        : "AT+GTOUT="
    }
}
